{
  "project_info": {
    "project_number": "186413894416",
    "project_id": "finalproject-88b75",
    "storage_bucket": "finalproject-88b75.appspot.com"
  },
  "client": [
    {
      "client_info": {
        "mobilesdk_app_id": "1:186413894416:android:589cdbafd8851da6f8b395",
        "android_client_info": {
          "package_name": "com.example.final_project"
        }
      },
      "oauth_client": [
        {
          "client_id": "186413894416-7810o1a7rt81inugfi136pe837e74imu.apps.googleusercontent.com",
          "client_type": 3
        }
      ],
      "api_key": [
        {
          "current_key": "AIzaSyD6Bc4Auyl9gLZrI9OhunG1XnSJzhnypmQ"
        }
      ],
      "services": {
        "appinvite_service": {
          "other_platform_oauth_client": [
            {
              "client_id": "186413894416-7810o1a7rt81inugfi136pe837e74imu.apps.googleusercontent.com",
              "client_type": 3
            }
          ]
        }
      }
    }
  ],
  "configuration_version": "1"
}